Cron Executed 2014-09-08 08:40:58
Cron Executed 2014-09-09 11:33:52
Cron Executed 2014-09-10 08:08:12
Cron Executed 2014-09-11 16:35:41
Cron Executed 2014-09-16 12:38:43
Cron Executed 2014-09-17 09:07:36
Cron Executed 2014-09-22 14:00:38
Cron Executed 2014-09-23 06:36:24
Cron Executed 2014-09-24 05:38:37
Cron Executed 2014-09-25 08:45:59
Cron Executed 2014-09-26 05:23:02
Cron Executed 2014-09-27 15:35:06
Cron Executed 2014-09-29 13:11:40
Cron Executed 2014-09-30 07:02:47
Cron Executed 2014-10-01 12:47:53
Cron Executed 2014-10-06 09:26:13
Cron Executed 2014-10-07 09:59:03
Cron Executed 2014-10-08 04:00:40
Cron Executed 2014-10-08 04:20:37
Cron Executed 2014-10-08 04:30:33
Cron Executed 2014-10-08 04:40:37
Cron Executed 2014-10-08 04:50:37
Cron Executed 2014-10-08 07:30:32
Cron Executed 2014-10-09 04:00:39
Cron Executed 2014-10-10 04:00:35
Cron Executed 2014-10-11 04:00:44
Cron Executed 2014-10-12 04:00:32
Cron Executed 2014-10-13 04:00:34
Cron Executed 2014-10-14 04:00:32
Cron Executed 2014-10-15 04:00:44
Cron Executed 2014-10-16 04:00:40
Cron Executed 2014-10-17 04:00:38
Cron Executed 2014-10-18 04:00:35
Cron Executed 2014-10-20 04:00:40
Cron Executed 2014-10-22 04:00:42
Cron Executed 2014-10-23 04:00:36
Cron Executed 2014-10-24 04:00:40
Cron Executed 2014-10-25 04:00:35
Cron Executed 2014-10-26 04:00:38
Cron Executed 2014-10-27 04:00:42
Cron Executed 2014-10-28 04:00:45
Cron Executed 2014-10-29 04:00:41
Cron Executed 2014-10-30 04:00:36
Cron Executed 2014-10-31 04:00:41
Cron Executed 2014-11-01 04:00:38
Cron Executed 2014-11-03 04:00:42
Cron Executed 2014-11-04 04:00:42
Cron Started 2014-11-04 09:46:54
Cron Executed 2014-11-04 09:47:29
Cron Started 2014-11-04 09:51:01
Cron Finished 2014-11-04 09:51:36
Cron Started 2014-11-05 04:00:01
Cron Finished 2014-11-05 04:00:37
Cron Started 2014-11-06 04:00:02
Cron Finished 2014-11-06 04:00:39
Cron Started 2014-11-07 04:00:01
Cron Finished 2014-11-07 04:00:38
Cron Started 2014-11-08 04:00:01
Cron Finished 2014-11-08 04:00:39
Cron Started 2014-11-09 04:00:01
Cron Finished 2014-11-09 04:00:38
Cron Started 2014-11-10 04:00:01
Cron Finished 2014-11-10 04:00:40
Cron Started 2014-11-11 04:00:01
Cron Finished 2014-11-11 04:00:44
Cron Started 2014-11-12 04:00:02
Cron Finished 2014-11-12 04:00:38
Cron Started 2014-11-13 04:00:02
Cron Finished 2014-11-13 04:00:37
Cron Started 2014-11-14 04:00:01
Cron Finished 2014-11-14 04:00:37
Cron Started 2014-11-15 04:00:01
Cron Finished 2014-11-15 04:00:39
Cron Started 2014-11-16 04:00:02
Cron Started 2014-11-17 04:00:01
Cron Finished 2014-11-17 04:00:43
Cron Started 2014-11-18 04:00:02
Cron Finished 2014-11-18 04:00:42
Cron Started 2014-11-19 04:00:02
Cron Finished 2014-11-19 04:00:38
Cron Started 2014-11-20 04:00:02
Cron Finished 2014-11-20 04:00:41
Cron Started 2014-11-21 04:00:01
Cron Finished 2014-11-21 04:00:39
Cron Started 2014-11-22 04:00:01
Cron Finished 2014-11-22 04:00:38
Cron Started 2014-11-23 04:00:01
Cron Finished 2014-11-23 04:00:36
Cron Started 2014-11-24 04:00:02
Cron Finished 2014-11-24 04:00:43
Cron Started 2014-11-25 04:00:02
Cron Finished 2014-11-25 04:00:47
Cron Started 2014-11-26 04:00:01
Cron Finished 2014-11-26 04:00:43
Cron Started 2014-11-27 04:00:01
Cron Finished 2014-11-27 04:00:44
Cron Started 2014-11-28 04:00:01
Cron Finished 2014-11-28 04:00:38
Cron Started 2014-11-29 04:00:01
Cron Finished 2014-11-29 04:00:39
Cron Started 2014-11-30 04:00:01
Cron Finished 2014-11-30 04:00:51
Cron Started 2014-12-01 04:00:01
Cron Finished 2014-12-01 04:00:45
Cron Started 2014-12-02 04:00:02
Cron Finished 2014-12-02 04:00:46
Cron Started 2014-12-03 04:00:01
Cron Finished 2014-12-03 04:00:40
Cron Started 2014-12-04 04:00:02
Cron Finished 2014-12-04 04:00:42
Cron Started 2014-12-05 04:00:02
Cron Finished 2014-12-05 04:00:43
Cron Started 2014-12-06 04:00:02
Cron Finished 2014-12-06 04:00:41
Cron Started 2014-12-07 04:00:01
Cron Finished 2014-12-07 04:00:45
Cron Started 2014-12-08 04:00:02
Cron Finished 2014-12-08 04:00:41
Cron Started 2014-12-09 04:00:01
Cron Finished 2014-12-09 04:00:46
Cron Started 2014-12-10 04:00:01
Cron Finished 2014-12-10 04:00:42
Cron Started 2014-12-11 04:00:02
Cron Finished 2014-12-11 04:00:51
Cron Started 2014-12-12 04:00:02
Cron Finished 2014-12-12 04:00:49
Cron Started 2014-12-13 04:00:01
Cron Finished 2014-12-13 04:00:58
Cron Started 2014-12-14 04:00:02
Cron Finished 2014-12-14 04:00:51
Cron Started 2014-12-15 04:00:02
Cron Finished 2014-12-15 04:00:51
Cron Started 2014-12-16 04:00:01
Cron Finished 2014-12-16 04:00:56
Cron Started 2014-12-17 04:00:02
Cron Finished 2014-12-17 04:00:55
Cron Started 2014-12-18 04:00:01
Cron Finished 2014-12-18 04:01:03
Cron Started 2014-12-19 04:00:01
Cron Finished 2014-12-19 04:00:56
Cron Started 2014-12-20 04:00:01
Cron Finished 2014-12-20 04:00:58
Cron Started 2014-12-21 04:00:01
Cron Finished 2014-12-21 04:00:49
Cron Started 2014-12-22 04:00:01
Cron Finished 2014-12-22 04:00:49
Cron Started 2014-12-23 04:00:01
Cron Finished 2014-12-23 04:00:56
Cron Started 2014-12-24 04:00:02
Cron Finished 2014-12-24 04:00:55
Cron Started 2014-12-25 04:00:01
Cron Finished 2014-12-25 04:00:50
Cron Started 2014-12-26 04:00:01
Cron Finished 2014-12-26 04:00:50
Cron Started 2014-12-27 04:00:01
Cron Finished 2014-12-27 04:00:53
Cron Started 2014-12-28 04:00:01
Cron Finished 2014-12-28 04:00:59
Cron Started 2014-12-29 04:00:01
Cron Finished 2014-12-29 04:00:50
Cron Started 2014-12-30 04:00:02
Cron Finished 2014-12-30 04:00:51
Cron Started 2014-12-31 04:00:01
Cron Finished 2014-12-31 04:01:07
Cron Started 2015-01-01 04:00:01
Cron Finished 2015-01-01 04:00:57
Cron Started 2015-01-02 04:00:01
Cron Finished 2015-01-02 04:00:52
Cron Started 2015-01-03 04:00:02
Cron Finished 2015-01-03 04:00:53
Cron Started 2015-01-04 04:00:01
Cron Finished 2015-01-04 04:01:09
Cron Started 2015-01-05 04:00:06
Cron Finished 2015-01-05 04:01:01
Cron Started 2015-01-06 04:00:02
Cron Finished 2015-01-06 04:01:17
Cron Started 2015-01-07 04:00:01
Cron Finished 2015-01-07 04:01:12
Cron Started 2015-01-08 04:00:01
Cron Finished 2015-01-08 04:01:12
Cron Started 2015-01-09 04:00:01
Cron Finished 2015-01-09 04:01:04
Cron Started 2015-01-10 04:00:07
Cron Finished 2015-01-10 04:01:04
Cron Started 2015-01-11 04:00:02
Cron Finished 2015-01-11 04:00:59
Cron Started 2015-01-12 04:00:01
Cron Finished 2015-01-12 04:01:02
Cron Started 2015-01-13 04:00:01
Cron Finished 2015-01-13 04:01:03
Cron Started 2015-01-14 04:00:01
Cron Finished 2015-01-14 04:01:05
Cron Started 2015-01-15 04:00:01
Cron Finished 2015-01-15 04:01:02
Cron Started 2015-01-16 04:00:01
Cron Finished 2015-01-16 04:01:03
Cron Started 2015-01-17 04:00:01
Cron Finished 2015-01-17 04:01:02
Cron Started 2015-01-18 04:00:02
Cron Finished 2015-01-18 04:00:58
Cron Started 2015-01-19 04:00:01
Cron Finished 2015-01-19 04:00:59
Cron Started 2015-01-20 04:00:01
Cron Finished 2015-01-20 04:00:55
Cron Started 2015-01-21 04:00:02
Cron Finished 2015-01-21 04:00:58
Cron Started 2015-01-22 04:00:02
Cron Finished 2015-01-22 04:01:09
Cron Started 2015-01-23 04:00:01
Cron Finished 2015-01-23 04:00:58
Cron Started 2015-01-24 04:00:02
Cron Finished 2015-01-24 04:00:56
Cron Started 2015-01-25 04:00:01
Cron Finished 2015-01-25 04:00:57
Cron Started 2015-01-26 04:00:02
Cron Finished 2015-01-26 04:00:57
Cron Started 2015-01-27 04:00:02
Cron Finished 2015-01-27 04:01:06
Cron Started 2015-01-28 04:00:02
Cron Finished 2015-01-28 04:01:07
Cron Started 2015-01-29 04:00:02
Cron Finished 2015-01-29 04:01:18
Cron Started 2015-01-30 04:00:01
Cron Finished 2015-01-30 04:01:10
Cron Started 2015-01-31 04:00:02
Cron Finished 2015-01-31 04:01:11
Cron Started 2015-02-01 04:00:02
Cron Finished 2015-02-01 04:01:04
Cron Started 2015-02-02 04:00:01
Cron Finished 2015-02-02 04:01:01
Cron Started 2015-02-03 04:00:01
Cron Finished 2015-02-03 04:01:09
Cron Started 2015-02-04 04:00:01
Cron Finished 2015-02-04 04:01:02
Cron Started 2015-02-05 04:00:01
Cron Finished 2015-02-05 04:01:04
Cron Started 2015-02-06 04:00:01
Cron Finished 2015-02-06 04:01:01
Cron Started 2015-02-07 04:00:01
Cron Finished 2015-02-07 04:01:01
Cron Started 2015-02-08 04:00:02
Cron Finished 2015-02-08 04:01:03
Cron Started 2015-02-09 04:00:02
Cron Finished 2015-02-09 04:01:01
Cron Started 2015-02-10 04:00:01
Cron Finished 2015-02-10 04:01:01
Cron Started 2015-02-11 04:00:01
Cron Finished 2015-02-11 04:01:09
Cron Started 2015-02-12 04:00:01
Cron Finished 2015-02-12 04:01:06
Cron Started 2015-02-13 04:00:01
Cron Finished 2015-02-13 04:01:02
Cron Started 2015-02-14 04:00:02
Cron Finished 2015-02-14 04:01:05
Cron Started 2015-02-15 04:00:01
Cron Finished 2015-02-15 04:01:03
Cron Started 2015-02-16 04:00:01
Cron Finished 2015-02-16 04:01:02
Cron Started 2015-02-17 04:00:02
Cron Finished 2015-02-17 04:01:06
Cron Started 2015-02-18 04:00:02
Cron Finished 2015-02-18 04:01:07
Cron Started 2015-02-19 04:00:01
Cron Finished 2015-02-19 04:01:06
Cron Started 2015-02-20 04:00:01
Cron Finished 2015-02-20 04:01:03
Cron Started 2015-02-21 04:00:02
Cron Finished 2015-02-21 04:01:03
Cron Started 2015-02-22 04:00:01
Cron Finished 2015-02-22 04:01:01
Cron Started 2015-02-23 04:00:01
Cron Finished 2015-02-23 04:01:01
Cron Started 2015-02-24 04:00:02
Cron Finished 2015-02-24 04:01:02
Cron Started 2015-02-25 04:00:02
Cron Finished 2015-02-25 04:01:03
Cron Started 2015-02-26 04:00:02
Cron Finished 2015-02-26 04:01:09
Cron Started 2015-02-27 04:00:01
Cron Finished 2015-02-27 04:01:03
Cron Started 2015-02-28 04:00:01
Cron Finished 2015-02-28 04:01:07
Cron Started 2015-03-01 04:00:02
Cron Finished 2015-03-01 04:01:03
Cron Started 2015-03-02 04:00:02
Cron Finished 2015-03-02 04:01:04
Cron Started 2015-03-03 04:00:01
Cron Finished 2015-03-03 04:01:03
Cron Started 2015-03-04 04:00:01
Cron Finished 2015-03-04 04:01:05
Cron Started 2015-03-05 04:00:01
Cron Finished 2015-03-05 04:01:15
Cron Started 2015-03-06 04:00:01
Cron Finished 2015-03-06 04:01:18
Cron Started 2015-03-07 04:00:02
Cron Finished 2015-03-07 04:01:17
Cron Started 2015-03-08 04:00:06
Cron Finished 2015-03-08 04:01:13
Cron Started 2015-03-09 04:00:07
Cron Finished 2015-03-09 04:01:14
Cron Started 2015-03-10 04:00:01
Cron Finished 2015-03-10 04:01:21
Cron Started 2015-03-11 04:00:01
Cron Finished 2015-03-11 04:01:17
Cron Started 2015-03-12 04:00:01
Cron Finished 2015-03-12 04:01:10
Cron Started 2015-03-13 04:00:01
Cron Finished 2015-03-13 04:01:12
Cron Started 2015-03-14 04:00:01
Cron Finished 2015-03-14 04:01:06
Cron Started 2015-03-15 04:00:02
Cron Finished 2015-03-15 04:01:08
Cron Started 2015-03-16 04:00:01
Cron Finished 2015-03-16 04:01:06
Cron Started 2015-03-17 04:00:01
Cron Finished 2015-03-17 04:01:07
Cron Started 2015-03-18 04:00:02
Cron Finished 2015-03-18 04:01:22
Cron Started 2015-03-19 04:00:01
Cron Finished 2015-03-19 04:01:13
Cron Started 2015-03-20 04:00:01
Cron Finished 2015-03-20 04:01:07
Cron Started 2015-03-21 04:00:02
Cron Finished 2015-03-21 04:01:16
Cron Started 2015-03-22 04:00:02
Cron Finished 2015-03-22 04:01:13
Cron Started 2015-03-23 04:00:02
Cron Finished 2015-03-23 04:01:08
Cron Started 2015-03-24 04:00:02
Cron Finished 2015-03-24 04:01:18
Cron Started 2015-03-25 04:00:01
Cron Finished 2015-03-25 04:01:09
Cron Started 2015-03-26 04:00:01
Cron Finished 2015-03-26 04:01:11
Cron Started 2015-03-27 04:00:01
Cron Finished 2015-03-27 04:01:07
Cron Started 2015-03-28 04:00:02
Cron Started 2015-03-29 04:00:02
Cron Finished 2015-03-29 04:01:17
Cron Started 2015-03-30 04:00:01
Cron Finished 2015-03-30 04:01:12
Cron Started 2015-03-31 04:00:01
Cron Finished 2015-03-31 04:01:13
Cron Started 2015-04-01 04:00:02
Cron Finished 2015-04-01 04:01:18
Cron Started 2015-04-02 04:00:01
Cron Finished 2015-04-02 04:01:13
Cron Started 2015-04-03 04:00:02
Cron Finished 2015-04-03 04:01:08
Cron Started 2015-04-04 04:00:02
Cron Finished 2015-04-04 04:01:11
Cron Started 2015-04-05 04:00:01
Cron Finished 2015-04-05 04:01:11
Cron Started 2015-04-06 04:00:01
Cron Finished 2015-04-06 04:01:07
Cron Started 2015-04-07 04:00:01
Cron Finished 2015-04-07 04:01:15
Cron Started 2015-04-08 04:00:01
Cron Finished 2015-04-08 04:01:15
Cron Started 2015-04-09 04:00:01
Cron Finished 2015-04-09 04:01:15
Cron Started 2015-04-10 04:00:01
Cron Finished 2015-04-10 04:01:09
Cron Started 2015-04-11 04:00:01
Cron Finished 2015-04-11 04:01:14
Cron Started 2015-04-12 04:00:01
Cron Finished 2015-04-12 04:01:21
Cron Started 2015-04-13 04:00:01
Cron Finished 2015-04-13 04:01:18
Cron Started 2015-04-14 04:00:01
Cron Finished 2015-04-14 04:01:21
Cron Started 2015-04-15 04:00:01
Cron Finished 2015-04-15 04:01:21
Cron Started 2015-04-16 04:00:02
Cron Finished 2015-04-16 04:01:24
Cron Started 2015-04-17 04:00:02
Cron Finished 2015-04-17 04:01:20
Cron Started 2015-04-18 04:00:01
Cron Finished 2015-04-18 04:01:32
Cron Started 2015-04-19 04:00:02
Cron Finished 2015-04-19 04:01:17
Cron Started 2015-04-20 04:00:01
Cron Finished 2015-04-20 04:01:18
Cron Started 2015-04-21 04:00:01
Cron Finished 2015-04-21 04:01:19
Cron Started 2015-04-22 04:00:01
Cron Finished 2015-04-22 04:01:24
Cron Started 2015-04-23 04:00:01
Cron Finished 2015-04-23 04:01:18
Cron Started 2015-04-24 04:00:02
Cron Finished 2015-04-24 04:01:18
Cron Started 2015-04-25 04:00:01
Cron Finished 2015-04-25 04:01:23
Cron Started 2015-04-26 04:00:02
Cron Finished 2015-04-26 04:01:23
Cron Started 2015-04-27 04:00:02
Cron Finished 2015-04-27 04:01:18
Cron Started 2015-04-28 04:00:01
Cron Finished 2015-04-28 04:01:22
Cron Started 2015-04-29 04:00:01
Cron Finished 2015-04-29 04:01:22
Cron Started 2015-04-30 04:00:01
Cron Finished 2015-04-30 04:01:23
Cron Started 2015-05-01 04:00:02
Cron Finished 2015-05-01 04:01:20
Cron Started 2015-05-02 04:00:01
Cron Finished 2015-05-02 04:01:18
Cron Started 2015-05-03 04:00:01
Cron Finished 2015-05-03 04:01:22
Cron Started 2015-05-04 04:00:01
Cron Finished 2015-05-04 04:01:16
Cron Started 2015-05-05 04:00:01
Cron Finished 2015-05-05 04:01:21
Cron Started 2015-05-06 04:00:02
Cron Finished 2015-05-06 04:01:30
Cron Started 2015-05-07 04:00:02
Cron Finished 2015-05-07 04:01:26
Cron Started 2015-05-08 04:00:01
Cron Finished 2015-05-08 04:01:20
Cron Started 2015-05-09 04:00:02
Cron Finished 2015-05-09 04:01:17
Cron Started 2015-05-10 04:00:01
Cron Finished 2015-05-10 04:01:23
Cron Started 2015-05-11 04:00:01
Cron Finished 2015-05-11 04:01:22
Cron Started 2015-05-12 04:00:01
Cron Finished 2015-05-12 04:01:18
Cron Started 2015-05-13 04:00:01
Cron Finished 2015-05-13 04:01:25
Cron Started 2015-05-14 04:00:01
Cron Finished 2015-05-14 04:01:26
Cron Started 2015-05-15 04:00:02
Cron Finished 2015-05-15 04:01:19
Cron Started 2015-05-16 04:00:01
Cron Finished 2015-05-16 04:01:26
Cron Started 2015-05-17 04:00:01
Cron Finished 2015-05-17 04:01:24
Cron Started 2015-05-18 04:00:01
Cron Finished 2015-05-18 04:01:19
Cron Started 2015-05-19 04:00:02
Cron Finished 2015-05-19 04:01:23
Cron Started 2015-05-20 04:00:01
Cron Finished 2015-05-20 04:01:19
Cron Started 2015-05-21 04:00:01
Cron Finished 2015-05-21 04:01:21
Cron Started 2015-05-22 04:00:02
Cron Finished 2015-05-22 04:01:20
Cron Started 2015-05-23 04:00:01
Cron Finished 2015-05-23 04:01:21
Cron Started 2015-05-24 04:00:01
Cron Finished 2015-05-24 04:01:23
Cron Started 2015-05-25 04:00:01
Cron Finished 2015-05-25 04:01:19
Cron Started 2015-05-26 04:00:01
Cron Finished 2015-05-26 04:01:17
Cron Started 2015-05-27 04:00:01
Cron Finished 2015-05-27 04:01:18
Cron Started 2015-05-28 04:00:01
Cron Finished 2015-05-28 04:01:24
Cron Started 2015-05-29 04:00:01
Cron Finished 2015-05-29 04:01:21
Cron Started 2015-05-30 04:00:01
Cron Finished 2015-05-30 04:01:22
Cron Started 2015-05-31 04:00:01
Cron Finished 2015-05-31 04:01:26
Cron Started 2015-06-01 04:00:02
Cron Finished 2015-06-01 04:01:20
Cron Started 2015-06-02 04:00:01
Cron Finished 2015-06-02 04:01:30
Cron Started 2015-06-03 04:00:01
Cron Finished 2015-06-03 04:01:32
Cron Started 2015-06-04 04:00:02
Cron Finished 2015-06-04 04:01:34
Cron Started 2015-06-05 04:00:01
Cron Finished 2015-06-05 04:01:21
Cron Started 2015-06-06 04:00:01
Cron Finished 2015-06-06 04:01:23
Cron Started 2015-06-07 04:00:01
Cron Started 2015-06-08 04:00:01
Cron Finished 2015-06-08 04:01:27
Cron Started 2015-06-09 04:00:02
Cron Finished 2015-06-09 04:01:29
Cron Started 2015-06-10 04:00:01
Cron Started 2015-06-11 04:00:01
Cron Finished 2015-06-11 04:01:34
Cron Started 2015-06-30 14:04:36
